{
  "contacts": [
    {
      "name": "jaswanth",
      "mobile": 1234567890,
      "id": 1
    },
    {
      "name": "ram",
      "mobile": 987654321,
      "id": 2
    },
    {
      "name": "abc",
      "mobile": 976512345678,
      "id": 3
    },
    {
      "name": "abcd",
      "mobile": 37943795729,
      "id": 4
    },
    {
      "name": "josh",
      "mobile": 837482734,
      "id": 5
    },
    {
      "name": "User1",
      "mobile": 832749287,
      "id": 6
    },
    {
      "name": "Jesse123",
      "mobile": 91238129387123,
      "id": 1001
    }
  ]
}